<svg width="1570" height="785" viewBox="0 0 1570 785" fill="none" xmlns="http://www.w3.org/2000/svg">
<path d="M1439 10.671L1390.9 60H1380.5L1439 0V10.671Z" fill="#2A2A2A"/>
<path d="M1428.5 0L1379 51V40.2034L1418.03 0H1428.5Z" fill="#2A2A2A"/>
<path d="M1379 28.5V18.0578L1397.06 0H1407.5L1379 28.5Z" fill="#2A2A2A"/>
<path d="M1439 31.5422L1410.55 60.0001H1400L1439 21.0001V31.5422Z" fill="#2A2A2A"/>
<path d="M1439 51.5344L1431.18 59.9999H1421L1439 40.4999V51.5344Z" fill="#2A2A2A"/>
<path d="M1540 472V532" stroke="#2A2A2A" stroke-width="6"/>
<path d="M1570 502L1510 502" stroke="#2A2A2A" stroke-width="6"/>
<path d="M133 725H193V785L133 725Z" fill="#2A2A2A"/>
<path fill-rule="evenodd" clip-rule="evenodd" d="M459.344 524V494.938H430.281V441.875H512.484V470.938H575.75V417.672H459.344V388.609H430.281V296.406H459.344V267.344H628.812V296.406H657.875V349.469H575.75V320.406H512.484V364.609H628.812V393.672H657.875V494.938H628.812V524H459.344ZM616.812 482.938H645.875V405.672H616.812V376.609H500.484V308.406H587.75V337.469H645.875V308.406H616.812V279.344H471.344V308.406H442.281V376.609H471.344V405.672H587.75V482.938H500.484V453.875H442.281V482.938H471.344V512H616.812V482.938ZM738.531 524V494.938H709.469V296.406H738.531V267.344H908V296.406H937.062V494.938H908V524H738.531ZM896 482.938H925.062V308.406H896V279.344H750.531V308.406H721.469V482.938H750.531V512H896V482.938ZM866.938 308.406V482.938H779.672V308.406H866.938ZM791.672 320.406V470.938H854.938V320.406H791.672ZM1017.72 524V494.938H988.656V441.875H1070.86V470.938H1134.12V417.672H1017.72V388.609H988.656V296.406H1017.72V267.344H1187.19V296.406H1216.25V349.469H1134.12V330.406H1070.86V364.609H1187.19V393.672H1216.25V494.938H1187.19V524H1017.72ZM1175.19 482.938H1204.25V405.672H1175.19V376.609H1058.86V318.406H1146.12V337.469H1204.25V308.406H1175.19V279.344H1029.72V308.406H1000.66V376.609H1029.72V405.672H1146.12V482.938H1058.86V453.875H1000.66V482.938H1029.72V512H1175.19V482.938Z" fill="#2A2A2A"/>
<path d="M1383.58 707.344H1429.83V718.906H1383.58V707.344ZM1372.02 718.906H1383.58V730.469H1372.02V718.906ZM1383.58 730.469H1418.27V742.031H1383.58V730.469ZM1418.27 742.031H1429.83V753.594H1418.27V742.031ZM1372.02 753.594H1418.27V765H1372.02V753.594ZM1451.16 707.344H1485.84V718.906H1451.16V707.344ZM1439.59 718.906H1451.16V753.594H1439.59V718.906ZM1485.84 718.906H1497.41V753.594H1485.84V718.906ZM1451.16 753.594H1485.84V765H1451.16V753.594ZM1518.73 707.344H1564.98V718.906H1518.73V707.344ZM1507.17 718.906H1518.73V730.469H1507.17V718.906ZM1518.73 730.469H1553.42V742.031H1518.73V730.469ZM1553.42 742.031H1564.98V753.594H1553.42V742.031ZM1507.17 753.594H1553.42V765H1507.17V753.594Z" fill="#2A2A2A"/>
<path d="M36.5781 372.344H82.8281V383.906H36.5781V372.344ZM25.0156 383.906H36.5781V395.469H25.0156V383.906ZM36.5781 395.469H71.2656V407.031H36.5781V395.469ZM71.2656 407.031H82.8281V418.594H71.2656V407.031ZM25.0156 418.594H71.2656V430H25.0156V418.594ZM104.156 372.344H138.844V383.906H104.156V372.344ZM92.5938 383.906H104.156V418.594H92.5938V383.906ZM138.844 383.906H150.406V418.594H138.844V383.906ZM104.156 418.594H138.844V430H104.156V418.594ZM171.734 372.344H217.984V383.906H171.734V372.344ZM160.172 383.906H171.734V395.469H160.172V383.906ZM171.734 395.469H206.422V407.031H171.734V395.469ZM206.422 407.031H217.984V418.594H206.422V407.031ZM160.172 418.594H206.422V430H160.172V418.594Z" fill="#2A2A2A"/>
</svg>
